<?xml version="1.0" encoding="utf-8"?>
<!-- Generator: Adobe Illustrator 20.1.0, SVG Export Plug-In . SVG Version: 6.00 Build 0)  -->
<svg version="1.1" id="Isolation_Mode" xmlns="http://www.w3.org/2000/svg" xmlns:xlink="http://www.w3.org/1999/xlink" x="0px"
	 y="0px" viewBox="0 0 159 159" style="enable-background:new 0 0 159 159;" xml:space="preserve">
<style type="text/css">
	.st0{fill:#323232;}
	.st1{fill:#FFFFFF;}
</style>
<rect class="st0" width="159" height="159"/>
<path id="XMLID_19_" class="st1" d="M84.9,64.7V58c0-3.3,2.2-4,3.7-4c1.5,0,9.4,0,9.4,0V39.6l-13-0.1c-14.4,0-17.7,10.7-17.7,17.6
	v7.6H59v10.1v6.6h8.4c0,19,0,42,0,42h16.8c0,0,0-23.2,0-42h12.5l0.6-6.6l0.9-10.2H84.9z"/>
</svg>
