<?xml version="1.0" encoding="utf-8"?>
<!-- Generator: Adobe Illustrator 20.1.0, SVG Export Plug-In . SVG Version: 6.00 Build 0)  -->
<svg version="1.1" id="Layer_1" xmlns="http://www.w3.org/2000/svg" xmlns:xlink="http://www.w3.org/1999/xlink" x="0px" y="0px"
	 viewBox="0 0 40 39" enable-background="new 0 0 40 39" xml:space="preserve">
<g>
	<g>
		<defs>
			<rect id="SVGID_1_" width="40" height="39"/>
		</defs>
		<clipPath id="SVGID_2_">
			<use xlink:href="#SVGID_1_"  overflow="visible"/>
		</clipPath>
		<path clip-path="url(#SVGID_2_)" d="M34.4,7.3c-1.3-0.5-2.9-0.8-4.5-0.8c-3,0-5.9,0.9-8,2.3c-0.4,0.3-0.7,0.1-0.9-0.3
			C19.8,5.5,17,1,10.7,1C7,1,3.9,2.6,2,5.6c-2.6,4-2.7,9.8-0.2,15.2C5.7,29.5,12,38.3,12.1,38.4c0,0,0.1,0.2,0.3,0.4
			c0.1,0.2,0.5,0.3,0.7,0.2l0.4-0.2c2.5-1,24.3-9.9,26.1-21.8C40.5,10.4,36.2,8,34.4,7.3L34.4,7.3z M37.2,16.7
			c-0.1,0.8-0.3,1.5-0.7,2.3c-3.5,8.1-17.7,14.9-22.4,17c-0.4,0.2-0.9,0-1.2-0.3c-1.9-2.8-6.2-9.4-9.1-15.8c-1.8-4-2-8.3-0.6-11.6
			C3.4,7.7,3.7,7.3,4,6.9c1.3-2.1,3.4-3.3,5.9-3.5c0.4,0,1.2,0,1.6,0c6.7,0.6,7.8,8.1,7.8,8.4l0.3,2.3c0.1,0.4,0.3,0.5,0.5,0.1
			l1.3-1.9c1.3-2,4.7-3.4,8.2-3.4c1.4,0,2.7,0.2,3.8,0.6C36.5,10.6,37.8,13.1,37.2,16.7L37.2,16.7z M37.2,16.7"/>
	</g>
</g>
</svg>
