<?xml version="1.0" encoding="utf-8"?>
<!-- Generator: Adobe Illustrator 20.1.0, SVG Export Plug-In . SVG Version: 6.00 Build 0)  -->
<svg version="1.1" id="Layer_1" xmlns="http://www.w3.org/2000/svg" xmlns:xlink="http://www.w3.org/1999/xlink" x="0px" y="0px"
	 viewBox="0 0 409.6 307.2" style="enable-background:new 0 0 409.6 307.2;" xml:space="preserve">
<g>
	<path d="M358.4,0H51.2C22.9,0,0,22.9,0,51.2V256c0,28.3,22.9,51.2,51.2,51.2h307.2c28.3,0,51.2-22.9,51.2-51.2V51.2
		C409.6,22.9,386.7,0,358.4,0L358.4,0z M274.1,136.6l108.4-92.9c0.8,2.4,1.5,4.8,1.5,7.4V256c0,1.8-0.7,3.4-1,5L274.1,136.6z
		 M358.4,25.6c1.7,0,3.2,0.6,4.8,1L204.8,162.4L46.4,26.6c1.6-0.3,3.1-1,4.8-1H358.4z M26.6,261c-0.4-1.7-1-3.2-1-5V51.2
		c0-2.6,0.8-5.1,1.5-7.4l108.3,92.9L26.6,261z M51.2,281.6c-2.6,0-4.9-0.8-7.3-1.5l111-126.9l41.6,35.6c2.4,2.1,5.4,3.1,8.3,3.1
		c3,0,5.9-1,8.3-3.1l41.6-35.6l111,126.9c-2.3,0.7-4.7,1.5-7.3,1.5H51.2z M51.2,281.6"/>
</g>
</svg>
